#define NO_RULES 6
#define GOAL_RULE (NO_RULES+1)
#define NO_SYMBOLS 9
#define NO_STATES 13

int leftSymbol[NO_RULES+1] = {
	    7,    6,    6,    9,    9,    8,    8};

int rightLength[NO_RULES+1] = {
	    2,    3,    1,    3,    1,    3,    1};

int parsingTable[NO_STATES][NO_SYMBOLS+1] = {
	{/*** state     0 ***/
	    5,    0,    0,    0,    4,    0,    3,    0,    2,    1},
	{/*** state     1 ***/
	    0,   -2,    6,   -2,    0,   -2,    0,    0,    0,    0},
	{/*** state     2 ***/
	    0,   -4,   -4,   -4,    0,   -4,    0,    0,    0,    0},
	{/*** state     3 ***/
	    0,    0,    0,    8,    0,    7,    0,    0,    0,    0},
	{/*** state     4 ***/
	    0,   -6,   -6,   -6,    0,   -6,    0,    0,    0,    0},
	{/*** state     5 ***/
	    5,    0,    0,    0,    4,    0,    9,    0,    2,    1},
	{/*** state     6 ***/
	    5,    0,    0,    0,    4,    0,    0,    0,   10,    0},
	{/*** state     7 ***/
	   -7,   -7,   -7,   -7,   -7,   -7,   -7,   -7,   -7,   -7},
	{/*** state     8 ***/
	    5,    0,    0,    0,    4,    0,    0,    0,    2,   11},
	{/*** state     9 ***/
	    0,   12,    0,    8,    0,    0,    0,    0,    0,    0},
	{/*** state    10 ***/
	    0,   -3,   -3,   -3,    0,   -3,    0,    0,    0,    0},
	{/*** state    11 ***/
	    0,   -1,    6,   -1,    0,   -1,    0,    0,    0,    0},
	{/*** state    12 ***/
	    0,   -5,   -5,   -5,    0,   -5,    0,    0,    0,    0}};
